sophomore/CE2010/ex04/ex04_26/simulation/qsim/lecture04_26.msim.vcd
$comment
	File created using the following command:
		vcd file lecture04_26.msim.vcd -direction
$end
$date
	Wed Mar 16 17:05:27 2022
$end
$version
	ModelSim Version 10.5b
$end
$timescale
	1ps
$end

$scope module lecture04_26_vlg_vec_tst $end
$var reg 1 ! A $end
$var reg 1 " B $end
$var reg 1 # C $end
$var reg 1 $ D $end
$var wire 1 % Y $end

$scope module i1 $end
$var wire 1 & gnd $end
$var wire 1 ' vcc $end
$var wire 1 ( unknown $end
$var tri1 1 ) devclrn $end
$var tri1 1 * devpor $end
$var tri1 1 + devoe $end
$var wire 1 , ~QUARTUS_CREATED_GND~I_combout $end
$var wire 1 - ~QUARTUS_CREATED_UNVM~~busy $end
$var wire 1 . ~QUARTUS_CREATED_ADC1~~eoc $end
$var wire 1 / ~QUARTUS_CREATED_ADC2~~eoc $end
$var wire 1 0 Y~output_o $end
$var wire 1 1 C~input_o $end
$var wire 1 2 D~input_o $end
$var wire 1 3 B~input_o $end
$var wire 1 4 A~input_o $end
$var wire 1 5 inst2~0_combout $end
$upscope $end
$upscope $end
$enddefinitions $end
#0
$dumpvars
0!
1"
1#
0$
1%
0&
1'
x(
1)
1*
1+
0,
z-
z.
z/
10
11
02
13
04
15
$end
#25000
0"
1$
12
03
05
00
0%
#50000
1!
0#
01
14
15
10
1%
#75000
1"
0$
02
13
#100000
0!
1#
11
04
#125000
0"
1$
12
03
05
00
0%
#150000
1!
0#
01
14
15
10
1%
#175000
1"
0$
02
13
#200000
0!
1#
11
04
#225000
0"
1$
12
03
05
00
0%
#250000
1!
0#
01
14
15
10
1%
#275000
1"
0$
02
13
#300000
0!
1#
11
04
#325000
0"
1$
12
03
05
00
0%
#350000
1!
0#
01
14
15
10
1%
#375000
1"
0$
02
13
#400000
0!
1#
11
04
#425000
0"
1$
12
03
05
00
0%
#450000
1!
0#
01
14
15
10
1%
#475000
1"
0$
02
13
#500000
0!
1#
11
04
#525000
0"
1$
12
03
05
00
0%
#550000
1!
0#
01
14
15
10
1%
#575000
1"
0$
02
13
#600000
0!
1#
11
04
#625000
0"
1$
12
03
05
00
0%
#650000
1!
0#
01
14
15
10
1%
#675000
1"
0$
02
13
#700000
0!
1#
11
04
#725000
0"
1$
12
03
05
00
0%
#750000
1!
0#
01
14
15
10
1%
#775000
1"
0$
02
13
#800000
0!
1#
11
04
#825000
0"
1$
12
03
05
00
0%
#850000
1!
0#
01
14
15
10
1%
#875000
1"
0$
02
13
#900000
0!
1#
11
04
#925000
0"
1$
12
03
05
00
0%
#950000
1!
0#
01
14
15
10
1%
#975000
1"
0$
02
13
