ce/ce2010/ex06_1/simulation/qsim/ex06_1.msim.vcd
$comment
	File created using the following command:
		vcd file ex06_1.msim.vcd -direction
$end
$date
	Wed Apr 20 16:49:23 2022
$end
$version
	ModelSim Version 10.5b
$end
$timescale
	1ps
$end

$scope module ex06_1_vlg_vec_tst $end
$var reg 1 ! A $end
$var reg 1 " B $end
$var wire 1 # C $end
$var wire 1 $ S $end

$scope module i1 $end
$var wire 1 % gnd $end
$var wire 1 & vcc $end
$var wire 1 ' unknown $end
$var tri1 1 ( devclrn $end
$var tri1 1 ) devpor $end
$var tri1 1 * devoe $end
$var wire 1 + ~QUARTUS_CREATED_GND~I_combout $end
$var wire 1 , ~QUARTUS_CREATED_UNVM~~busy $end
$var wire 1 - ~QUARTUS_CREATED_ADC1~~eoc $end
$var wire 1 . ~QUARTUS_CREATED_ADC2~~eoc $end
$var wire 1 / C~output_o $end
$var wire 1 0 S~output_o $end
$var wire 1 1 A~input_o $end
$var wire 1 2 B~input_o $end
$var wire 1 3 inst~combout $end
$var wire 1 4 inst2~combout $end
$upscope $end
$upscope $end
$enddefinitions $end
#0
$dumpvars
0!
0"
0#
0$
0%
1&
x'
1(
1)
1*
0+
z,
z-
z.
0/
00
01
02
03
04
$end
#40000
1"
12
14
10
1$
#80000
1!
0"
02
11
#120000
1"
12
04
13
1/
00
0$
1#
#160000
0!
0"
02
01
03
0/
0#
#200000
1"
12
14
10
1$
#240000
1!
0"
02
11
#280000
1"
12
04
13
1/
00
0$
1#
#320000
0!
0"
02
01
03
0/
0#
#360000
1"
12
14
10
1$
#400000
1!
0"
02
11
#440000
1"
12
04
13
1/
00
0$
1#
#480000
0!
0"
02
01
03
0/
0#
#520000
1"
12
14
10
1$
#560000
1!
0"
02
11
#600000
1"
12
04
13
1/
00
0$
1#
#640000
0!
0"
02
01
03
0/
0#
#680000
1"
12
14
10
1$
#720000
1!
0"
02
11
#760000
1"
12
04
13
1/
00
0$
1#
#800000
0!
0"
02
01
03
0/
0#
#840000
1"
12
14
10
1$
#880000
1!
0"
02
11
#920000
1"
12
04
13
1/
00
0$
1#
#960000
0!
0"
02
01
03
0/
0#
