ce/ce2010/Lecture5_第26組/simulation/qsim/ex_05.msim.vcd
$comment
	File created using the following command:
		vcd file ex_05.msim.vcd -direction
$end
$date
	Wed Mar 23 16:24:55 2022
$end
$version
	ModelSim Version 10.5b
$end
$timescale
	1ps
$end

$scope module ex_05_vlg_vec_tst $end
$var reg 1 ! A $end
$var reg 1 " B $end
$var reg 1 # C $end
$var reg 1 $ EN $end
$var wire 1 % Q0 $end
$var wire 1 & Q1 $end
$var wire 1 ' Q2 $end
$var wire 1 ( Q3 $end
$var wire 1 ) Q4 $end
$var wire 1 * Q5 $end
$var wire 1 + Q6 $end
$var wire 1 , Q7 $end

$scope module i1 $end
$var wire 1 - gnd $end
$var wire 1 . vcc $end
$var wire 1 / unknown $end
$var tri1 1 0 devclrn $end
$var tri1 1 1 devpor $end
$var tri1 1 2 devoe $end
$var wire 1 3 ~QUARTUS_CREATED_GND~I_combout $end
$var wire 1 4 ~QUARTUS_CREATED_UNVM~~busy $end
$var wire 1 5 ~QUARTUS_CREATED_ADC1~~eoc $end
$var wire 1 6 ~QUARTUS_CREATED_ADC2~~eoc $end
$var wire 1 7 Q0~output_o $end
$var wire 1 8 Q1~output_o $end
$var wire 1 9 Q2~output_o $end
$var wire 1 : Q3~output_o $end
$var wire 1 ; Q4~output_o $end
$var wire 1 < Q5~output_o $end
$var wire 1 = Q6~output_o $end
$var wire 1 > Q7~output_o $end
$var wire 1 ? B~input_o $end
$var wire 1 @ A~input_o $end
$var wire 1 A C~input_o $end
$var wire 1 B EN~input_o $end
$var wire 1 C inst4~combout $end
$var wire 1 D inst5~combout $end
$var wire 1 E inst6~combout $end
$var wire 1 F inst7~combout $end
$var wire 1 G inst8~combout $end
$var wire 1 H inst9~combout $end
$var wire 1 I inst10~combout $end
$var wire 1 J inst11~combout $end
$upscope $end
$upscope $end
$enddefinitions $end
#0
$dumpvars
0!
0"
0#
0$
0%
0&
0'
0(
0)
0*
0+
0,
0-
1.
x/
10
11
12
03
z4
z5
z6
07
08
09
0:
0;
0<
0=
0>
0?
0@
0A
0B
0C
0D
0E
0F
0G
0H
0I
0J
$end
#5000
1!
1@
#10000
1"
0!
0@
1?
#15000
1!
1@
#20000
1#
0"
0!
0@
0?
1A
#25000
1!
1@
#30000
1"
0!
0@
1?
#35000
1!
1@
#40000
0#
0"
0!
0@
0?
0A
#45000
1!
1@
#50000
1"
0!
0@
1?
#55000
1!
1@
#60000
1#
0"
0!
0@
0?
1A
#65000
1!
1@
#70000
1"
0!
0@
1?
#75000
1!
1@
#80000
1$
0#
0"
0!
0@
0?
0A
1B
1C
17
1%
#85000
1!
1@
1D
0C
07
18
1&
0%
#90000
1"
0!
0@
1?
1E
0D
08
19
1'
0&
#95000
1!
1@
1F
0E
09
1:
1(
0'
#100000
1#
0"
0!
0@
0?
1A
1G
0F
0:
1;
1)
0(
#105000
1!
1@
1H
0G
0;
1<
1*
0)
#110000
1"
0!
0@
1?
1I
0H
0<
1=
1+
0*
#115000
1!
1@
1J
0I
0=
1>
1,
0+
#120000
0#
0"
0!
0@
0?
0A
0J
1C
17
0>
0,
1%
#125000
1!
1@
1D
0C
07
18
1&
0%
#130000
1"
0!
0@
1?
1E
0D
08
19
1'
0&
#135000
1!
1@
1F
0E
09
1:
1(
0'
#140000
1#
0"
0!
0@
0?
1A
1G
0F
0:
1;
1)
0(
#145000
1!
1@
1H
0G
0;
1<
1*
0)
#150000
1"
0!
0@
1?
1I
0H
0<
1=
1+
0*
#155000
1!
1@
1J
0I
0=
1>
1,
0+
#160000
0$
0#
0"
0!
0@
0?
0A
0B
0J
0>
0,
#165000
1!
1@
#170000
1"
0!
0@
1?
#175000
1!
1@
#180000
1#
0"
0!
0@
0?
1A
#185000
1!
1@
#190000
1"
0!
0@
1?
#195000
1!
1@
#200000
0#
0"
0!
0@
0?
0A
#205000
1!
1@
#210000
1"
0!
0@
1?
#215000
1!
1@
#220000
1#
0"
0!
0@
0?
1A
#225000
1!
1@
#230000
1"
0!
0@
1?
#235000
1!
1@
#240000
1$
0#
0"
0!
0@
0?
0A
1B
1C
17
1%
#245000
1!
1@
1D
0C
07
18
1&
0%
#250000
1"
0!
0@
1?
1E
0D
08
19
1'
0&
#255000
1!
1@
1F
0E
09
1:
1(
0'
#260000
1#
0"
0!
0@
0?
1A
1G
0F
0:
1;
1)
0(
#265000
1!
1@
1H
0G
0;
1<
1*
0)
#270000
1"
0!
0@
1?
1I
0H
0<
1=
1+
0*
#275000
1!
1@
1J
0I
0=
1>
1,
0+
#280000
0#
0"
0!
0@
0?
0A
0J
1C
17
0>
0,
1%
#285000
1!
1@
1D
0C
07
18
1&
0%
#290000
1"
0!
0@
1?
1E
0D
08
19
1'
0&
#295000
1!
1@
1F
0E
09
1:
1(
0'
#300000
1#
0"
0!
0@
0?
1A
1G
0F
0:
1;
1)
0(
#305000
1!
1@
1H
0G
0;
1<
1*
0)
#310000
1"
0!
0@
1?
1I
0H
0<
1=
1+
0*
#315000
1!
1@
1J
0I
0=
1>
1,
0+
#320000
0$
0#
0"
0!
0@
0?
0A
0B
0J
0>
0,
#325000
1!
1@
#330000
1"
0!
0@
1?
#335000
1!
1@
#340000
1#
0"
0!
0@
0?
1A
#345000
1!
1@
#350000
1"
0!
0@
1?
#355000
1!
1@
#360000
0#
0"
0!
0@
0?
0A
#365000
1!
1@
#370000
1"
0!
0@
1?
#375000
1!
1@
#380000
1#
0"
0!
0@
0?
1A
#385000
1!
1@
#390000
1"
0!
0@
1?
#395000
1!
1@
#400000
1$
0#
0"
0!
0@
0?
0A
1B
1C
17
1%
#405000
1!
1@
1D
0C
07
18
1&
0%
#410000
1"
0!
0@
1?
1E
0D
08
19
1'
0&
#415000
1!
1@
1F
0E
09
1:
1(
0'
#420000
1#
0"
0!
0@
0?
1A
1G
0F
0:
1;
1)
0(
#425000
1!
1@
1H
0G
0;
1<
1*
0)
#430000
1"
0!
0@
1?
1I
0H
0<
1=
1+
0*
#435000
1!
1@
1J
0I
0=
1>
1,
0+
#440000
0#
0"
0!
0@
0?
0A
0J
1C
17
0>
0,
1%
#445000
1!
1@
1D
0C
07
18
1&
0%
#450000
1"
0!
0@
1?
1E
0D
08
19
1'
0&
#455000
1!
1@
1F
0E
09
1:
1(
0'
#460000
1#
0"
0!
0@
0?
1A
1G
0F
0:
1;
1)
0(
#465000
1!
1@
1H
0G
0;
1<
1*
0)
#470000
1"
0!
0@
1?
1I
0H
0<
1=
1+
0*
#475000
1!
1@
1J
0I
0=
1>
1,
0+
#480000
0$
0#
0"
0!
0@
0?
0A
0B
0J
0>
0,
#485000
1!
1@
#490000
1"
0!
0@
1?
#495000
1!
1@
#500000
1#
0"
0!
0@
0?
1A
#505000
1!
1@
#510000
1"
0!
0@
1?
#515000
1!
1@
#520000
0#
0"
0!
0@
0?
0A
#525000
1!
1@
#530000
1"
0!
0@
1?
#535000
1!
1@
#540000
1#
0"
0!
0@
0?
1A
#545000
1!
1@
#550000
1"
0!
0@
1?
#555000
1!
1@
#560000
1$
0#
0"
0!
0@
0?
0A
1B
1C
17
1%
#565000
1!
1@
1D
0C
07
18
1&
0%
#570000
1"
0!
0@
1?
1E
0D
08
19
1'
0&
#575000
1!
1@
1F
0E
09
1:
1(
0'
#580000
1#
0"
0!
0@
0?
1A
1G
0F
0:
1;
1)
0(
#585000
1!
1@
1H
0G
0;
1<
1*
0)
#590000
1"
0!
0@
1?
1I
0H
0<
1=
1+
0*
#595000
1!
1@
1J
0I
0=
1>
1,
0+
#600000
0#
0"
0!
0@
0?
0A
0J
1C
17
0>
0,
1%
#605000
1!
1@
1D
0C
07
18
1&
0%
#610000
1"
0!
0@
1?
1E
0D
08
19
1'
0&
#615000
1!
1@
1F
0E
09
1:
1(
0'
#620000
1#
0"
0!
0@
0?
1A
1G
0F
0:
1;
1)
0(
#625000
1!
1@
1H
0G
0;
1<
1*
0)
#630000
1"
0!
0@
1?
1I
0H
0<
1=
1+
0*
#635000
1!
1@
1J
0I
0=
1>
1,
0+
#640000
0$
0#
0"
0!
0@
0?
0A
0B
0J
0>
0,
#645000
1!
1@
#650000
1"
0!
0@
1?
#655000
1!
1@
#660000
1#
0"
0!
0@
0?
1A
#665000
1!
1@
#670000
1"
0!
0@
1?
#675000
1!
1@
#680000
0#
0"
0!
0@
0?
0A
#685000
1!
1@
#690000
1"
0!
0@
1?
#695000
1!
1@
#700000
1#
0"
0!
0@
0?
1A
#705000
1!
1@
#710000
1"
0!
0@
1?
#715000
1!
1@
#720000
1$
0#
0"
0!
0@
0?
0A
1B
1C
17
1%
#725000
1!
1@
1D
0C
07
18
1&
0%
#730000
1"
0!
0@
1?
1E
0D
08
19
1'
0&
#735000
1!
1@
1F
0E
09
1:
1(
0'
#740000
1#
0"
0!
0@
0?
1A
1G
0F
0:
1;
1)
0(
#745000
1!
1@
1H
0G
0;
1<
1*
0)
#750000
1"
0!
0@
1?
1I
0H
0<
1=
1+
0*
#755000
1!
1@
1J
0I
0=
1>
1,
0+
#760000
0#
0"
0!
0@
0?
0A
0J
1C
17
0>
0,
1%
#765000
1!
1@
1D
0C
07
18
1&
0%
#770000
1"
0!
0@
1?
1E
0D
08
19
1'
0&
#775000
1!
1@
1F
0E
09
1:
1(
0'
#780000
1#
0"
0!
0@
0?
1A
1G
0F
0:
1;
1)
0(
#785000
1!
1@
1H
0G
0;
1<
1*
0)
#790000
1"
0!
0@
1?
1I
0H
0<
1=
1+
0*
#795000
1!
1@
1J
0I
0=
1>
1,
0+
#800000
0$
0#
0"
0!
0@
0?
0A
0B
0J
0>
0,
#805000
1!
1@
#810000
1"
0!
0@
1?
#815000
1!
1@
#820000
1#
0"
0!
0@
0?
1A
#825000
1!
1@
#830000
1"
0!
0@
1?
#835000
1!
1@
#840000
0#
0"
0!
0@
0?
0A
#845000
1!
1@
#850000
1"
0!
0@
1?
#855000
1!
1@
#860000
1#
0"
0!
0@
0?
1A
#865000
1!
1@
#870000
1"
0!
0@
1?
#875000
1!
1@
#880000
1$
0#
0"
0!
0@
0?
0A
1B
1C
17
1%
#885000
1!
1@
1D
0C
07
18
1&
0%
#890000
1"
0!
0@
1?
1E
0D
08
19
1'
0&
#895000
1!
1@
1F
0E
09
1:
1(
0'
#900000
1#
0"
0!
0@
0?
1A
1G
0F
0:
1;
1)
0(
#905000
1!
1@
1H
0G
0;
1<
1*
0)
#910000
1"
0!
0@
1?
1I
0H
0<
1=
1+
0*
#915000
1!
1@
1J
0I
0=
1>
1,
0+
#920000
0#
0"
0!
0@
0?
0A
0J
1C
17
0>
0,
1%
#925000
1!
1@
1D
0C
07
18
1&
0%
#930000
1"
0!
0@
1?
1E
0D
08
19
1'
0&
#935000
1!
1@
1F
0E
09
1:
1(
0'
#940000
1#
0"
0!
0@
0?
1A
1G
0F
0:
1;
1)
0(
#945000
1!
1@
1H
0G
0;
1<
1*
0)
#950000
1"
0!
0@
1?
1I
0H
0<
1=
1+
0*
#955000
1!
1@
1J
0I
0=
1>
1,
0+
#960000
0$
0#
0"
0!
0@
0?
0A
0B
0J
0>
0,
#965000
1!
1@
#970000
1"
0!
0@
1?
#975000
1!
1@
#980000
1#
0"
0!
0@
0?
1A
#985000
1!
1@
#990000
1"
0!
0@
1?
#995000
1!
1@
